EESchema Schematic File Version 4
LIBS:LLC boost converter-cache
EELAYER 29 0
EELAYER END
$Descr A4 11693 8268
encoding utf-8
Sheet 1 1
Title ""
Date ""
Rev ""
Comp ""
Comment1 ""
Comment2 ""
Comment3 ""
Comment4 ""
$EndDescr
$Comp
L power:Earth #PWR0101
U 1 1 5EFB5EC0
P 1300 7550
F 0 "#PWR0101" H 1300 7300 50  0001 C CNN
F 1 "Earth" H 1300 7400 50  0001 C CNN
F 2 "" H 1300 7550 50  0001 C CNN
F 3 "~" H 1300 7550 50  0001 C CNN
	1    1300 7550
	1    0    0    -1  
$EndComp
$Comp
L power:Earth #PWR0102
U 1 1 5EFB6998
P 2300 7550
F 0 "#PWR0102" H 2300 7300 50  0001 C CNN
F 1 "Earth" H 2300 7400 50  0001 C CNN
F 2 "" H 2300 7550 50  0001 C CNN
F 3 "~" H 2300 7550 50  0001 C CNN
	1    2300 7550
	1    0    0    -1  
$EndComp
$Comp
L Device:C_Small C1206
U 1 1 5EFB8DA3
P 1300 7300
F 0 "C1206" H 1392 7346 50  0000 L CNN
F 1 "1000pF" H 1392 7255 50  0000 L CNN
F 2 "Capacitors_SMD:C_1206" H 1300 7300 50  0001 C CNN
F 3 "~" H 1300 7300 50  0001 C CNN
	1    1300 7300
	1    0    0    -1  
$EndComp
Wire Wire Line
	1300 7400 1300 7550
Wire Wire Line
	2800 7150 2300 7150
Wire Wire Line
	1800 6200 1800 6550
Connection ~ 1800 6200
Wire Wire Line
	1800 6200 2000 6200
Wire Wire Line
	1800 6550 2000 6550
Wire Wire Line
	2800 7000 1300 7000
Connection ~ 1300 7000
Wire Wire Line
	1300 7000 1300 7200
Wire Wire Line
	1400 6200 1300 6200
Connection ~ 1300 6200
Wire Wire Line
	1300 6200 1300 6550
Wire Wire Line
	1400 6550 1300 6550
Connection ~ 1300 6550
Wire Wire Line
	1300 6550 1300 7000
Wire Wire Line
	1600 6550 1800 6550
Wire Wire Line
	1600 6200 1800 6200
Wire Wire Line
	2300 7550 2300 7400
$Comp
L Device:C_Small C?
U 1 1 5EFD3F33
P 1800 5500
F 0 "C?" V 1571 5500 50  0000 C CNN
F 1 "C470nF" V 1662 5500 50  0000 C CNN
F 2 "" H 1800 5500 50  0001 C CNN
F 3 "~" H 1800 5500 50  0001 C CNN
	1    1800 5500
	0    1    1    0   
$EndComp
$Comp
L Device:L_Core_Iron_Coupled L?
U 1 1 5EFD4983
P 1800 4700
F 0 "L?" V 1846 4512 50  0000 R CNN
F 1 "L12mH" V 1755 4512 50  0000 R CNN
F 2 "" H 1800 4700 50  0001 C CNN
F 3 "~" H 1800 4700 50  0001 C CNN
	1    1800 4700
	0    -1   -1   0   
$EndComp
$Comp
L Device:C_Small C?
U 1 1 5EFD5FAE
P 1800 4200
F 0 "C?" V 1571 4200 50  0000 C CNN
F 1 "C470nF" V 1662 4200 50  0000 C CNN
F 2 "" H 1800 4200 50  0001 C CNN
F 3 "~" H 1800 4200 50  0001 C CNN
	1    1800 4200
	0    1    1    0   
$EndComp
$Comp
L Device:L_Core_Iron_Coupled L?
U 1 1 5EFD714C
P 1800 3550
F 0 "L?" V 1846 3362 50  0000 R CNN
F 1 "L12mH" V 1755 3362 50  0000 R CNN
F 2 "" H 1800 3550 50  0001 C CNN
F 3 "~" H 1800 3550 50  0001 C CNN
	1    1800 3550
	0    -1   -1   0   
$EndComp
Wire Wire Line
	2300 5050 1900 5050
Wire Wire Line
	1900 5050 1900 4900
Wire Wire Line
	2300 5050 2300 5300
Wire Wire Line
	1300 5050 1700 5050
Wire Wire Line
	1700 5050 1700 4900
Wire Wire Line
	1300 5050 1300 5500
Wire Wire Line
	1700 5500 1300 5500
Connection ~ 1300 5500
Wire Wire Line
	1300 5500 1300 5700
Wire Wire Line
	1900 5500 2300 5500
Connection ~ 2300 5500
Wire Wire Line
	1700 4500 1400 4500
Wire Wire Line
	1400 4500 1400 4200
Wire Wire Line
	1400 3750 1700 3750
Wire Wire Line
	2200 4500 2200 4200
Wire Wire Line
	2200 3750 1900 3750
Wire Wire Line
	1900 4500 2200 4500
Wire Wire Line
	1900 4200 2200 4200
Connection ~ 2200 4200
Wire Wire Line
	2200 4200 2200 3750
Wire Wire Line
	1700 4200 1400 4200
Connection ~ 1400 4200
Wire Wire Line
	1400 4200 1400 3750
$Comp
L Device:C_Small C?
U 1 1 5F006B16
P 2950 5700
F 0 "C?" V 2721 5700 50  0000 C CNN
F 1 "1000pF" V 2812 5700 50  0000 C CNN
F 2 "" H 2950 5700 50  0001 C CNN
F 3 "~" H 2950 5700 50  0001 C CNN
	1    2950 5700
	0    1    1    0   
$EndComp
$Comp
L power:Earth #PWR0103
U 1 1 5F0082BB
P 3350 5750
F 0 "#PWR0103" H 3350 5500 50  0001 C CNN
F 1 "Earth" H 3350 5600 50  0001 C CNN
F 2 "" H 3350 5750 50  0001 C CNN
F 3 "~" H 3350 5750 50  0001 C CNN
	1    3350 5750
	1    0    0    -1  
$EndComp
Wire Wire Line
	2850 5700 1300 5700
Connection ~ 1300 5700
Wire Wire Line
	1300 5700 1300 6200
Wire Wire Line
	2850 5300 2300 5300
Connection ~ 2300 5300
Wire Wire Line
	2300 5300 2300 5500
Wire Wire Line
	3050 5700 3350 5700
Wire Wire Line
	3350 5700 3350 5750
Wire Wire Line
	3050 5300 3350 5300
Wire Wire Line
	3350 5300 3350 5700
Connection ~ 3350 5700
$Comp
L Simulation_SPICE:DIODE D1
U 1 1 5EFCD9EE
P 1600 2550
F 0 "D1" V 1646 2470 50  0000 R CNN
F 1 "DIODE" V 1555 2470 50  0000 R CNN
F 2 "" H 1600 2550 50  0001 C CNN
F 3 "~" H 1600 2550 50  0001 C CNN
F 4 "Y" H 1600 2550 50  0001 L CNN "Spice_Netlist_Enabled"
F 5 "V" H 1600 2550 50  0001 L CNN "Spice_Primitive"
	1    1600 2550
	0    -1   -1   0   
$EndComp
$Comp
L Simulation_SPICE:DIODE D2
U 1 1 5EFCEA9F
P 1600 2950
F 0 "D2" V 1646 2870 50  0000 R CNN
F 1 "DIODE" V 1555 2870 50  0000 R CNN
F 2 "" H 1600 2950 50  0001 C CNN
F 3 "~" H 1600 2950 50  0001 C CNN
F 4 "Y" H 1600 2950 50  0001 L CNN "Spice_Netlist_Enabled"
F 5 "V" H 1600 2950 50  0001 L CNN "Spice_Primitive"
	1    1600 2950
	0    -1   -1   0   
$EndComp
$Comp
L Simulation_SPICE:DIODE D4
U 1 1 5EFCF2DE
P 2000 2950
F 0 "D4" V 2046 2870 50  0000 R CNN
F 1 "DIODE" V 1955 2870 50  0000 R CNN
F 2 "" H 2000 2950 50  0001 C CNN
F 3 "~" H 2000 2950 50  0001 C CNN
F 4 "Y" H 2000 2950 50  0001 L CNN "Spice_Netlist_Enabled"
F 5 "V" H 2000 2950 50  0001 L CNN "Spice_Primitive"
	1    2000 2950
	0    -1   -1   0   
$EndComp
$Comp
L Simulation_SPICE:DIODE D3
U 1 1 5EFD0209
P 2000 2550
F 0 "D3" V 2046 2470 50  0000 R CNN
F 1 "DIODE" V 1955 2470 50  0000 R CNN
F 2 "" H 2000 2550 50  0001 C CNN
F 3 "~" H 2000 2550 50  0001 C CNN
F 4 "Y" H 2000 2550 50  0001 L CNN "Spice_Netlist_Enabled"
F 5 "V" H 2000 2550 50  0001 L CNN "Spice_Primitive"
	1    2000 2550
	0    -1   -1   0   
$EndComp
$Comp
L power:Earth #PWR0104
U 1 1 5EFD2BB4
P 2650 3150
F 0 "#PWR0104" H 2650 2900 50  0001 C CNN
F 1 "Earth" H 2650 3000 50  0001 C CNN
F 2 "" H 2650 3150 50  0001 C CNN
F 3 "~" H 2650 3150 50  0001 C CNN
	1    2650 3150
	1    0    0    -1  
$EndComp
Wire Wire Line
	1600 3100 2000 3100
Wire Wire Line
	2000 3100 2650 3100
Wire Wire Line
	2650 3100 2650 3150
Connection ~ 2000 3100
Wire Wire Line
	1600 2400 1600 2000
Wire Wire Line
	1600 2000 1800 2000
Wire Wire Line
	2000 2400 2000 2000
Wire Wire Line
	1600 2700 1600 2750
Wire Wire Line
	2000 2700 2000 2750
$Comp
L Device:C_Small C?
U 1 1 5EFDC8F2
P 1800 3250
F 0 "C?" V 1571 3250 50  0000 C CNN
F 1 "C470nF" V 1662 3250 50  0000 C CNN
F 2 "" H 1800 3250 50  0001 C CNN
F 3 "~" H 1800 3250 50  0001 C CNN
	1    1800 3250
	0    1    1    0   
$EndComp
Wire Wire Line
	1600 2750 1400 2750
Wire Wire Line
	1400 2750 1400 3250
Wire Wire Line
	1400 3350 1700 3350
Connection ~ 1600 2750
Wire Wire Line
	1600 2750 1600 2800
Wire Wire Line
	1900 3350 2200 3350
Wire Wire Line
	2200 3350 2200 3250
Wire Wire Line
	2200 2750 2000 2750
Connection ~ 2000 2750
Wire Wire Line
	2000 2750 2000 2800
Wire Wire Line
	1700 3250 1400 3250
Connection ~ 1400 3250
Wire Wire Line
	1400 3250 1400 3350
Wire Wire Line
	1900 3250 2200 3250
Connection ~ 2200 3250
Wire Wire Line
	2200 3250 2200 2750
$Comp
L Device:C_Small C?
U 1 1 5F0058F3
P 2950 5300
F 0 "C?" V 2721 5300 50  0000 C CNN
F 1 "1000pF" V 2812 5300 50  0000 C CNN
F 2 "" H 2950 5300 50  0001 C CNN
F 3 "~" H 2950 5300 50  0001 C CNN
	1    2950 5300
	0    1    1    0   
$EndComp
$Comp
L power:AC #220V-1A0101
U 1 1 5EFEB5DA
P 2800 7000
F 0 "#220V-1A0101" H 2905 7134 50  0000 L CNN
F 1 "AC" H 2905 7043 50  0000 L CNN
F 2 "" H 2800 7000 50  0001 C CNN
F 3 "" H 2800 7000 50  0001 C CNN
	1    2800 7000
	1    0    0    -1  
$EndComp
Text Notes 2800 7200 0    50   ~ 0
N
$Comp
L power:Earth #PWR0105
U 1 1 5EFEE7D6
P 2750 7550
F 0 "#PWR0105" H 2750 7300 50  0001 C CNN
F 1 "Earth" H 2750 7400 50  0001 C CNN
F 2 "" H 2750 7550 50  0001 C CNN
F 3 "~" H 2750 7550 50  0001 C CNN
	1    2750 7550
	1    0    0    -1  
$EndComp
Wire Wire Line
	2750 7550 2750 7400
Wire Wire Line
	2750 7400 2800 7400
Text Notes 2800 7400 0    50   ~ 0
G
Text Notes 1750 1850 0    50   ~ 0
310В
$Comp
L Regulator_Controller:UCC256302 LLC_Controller1
U 1 1 5EFFB1F6
P 3350 2000
F 0 "LLC_Controller1" H 3400 1975 50  0000 C CNN
F 1 "UCC256402" H 3400 1884 50  0000 C CNN
F 2 "SMD_Packages:SOIC-14_N" H 3350 2000 50  0001 C CNN
F 3 "" H 3350 2000 50  0001 C CNN
	1    3350 2000
	1    0    0    -1  
$EndComp
$Comp
L LLC-boost-converter-rescue:Transformer_2P_2S-Device EFD25
U 1 1 5F12E0FE
P 7750 2650
F 0 "EFD25" H 7750 3231 50  0000 C CNN
F 1 "Transformer_2P_2S" H 7750 3140 50  0000 C CNN
F 2 "LLC boost converter:EFD25" H 7750 2650 50  0001 C CNN
F 3 "~" H 7750 2650 50  0001 C CNN
	1    7750 2650
	1    0    0    -1  
$EndComp
$Comp
L Simulation_SPICE:DIODE D?
U 1 1 5F2DB4C0
P 8600 2200
F 0 "D?" V 8646 2120 50  0000 R CNN
F 1 "DIODE" V 8555 2120 50  0000 R CNN
F 2 "" H 8600 2200 50  0001 C CNN
F 3 "~" H 8600 2200 50  0001 C CNN
F 4 "Y" H 8600 2200 50  0001 L CNN "Spice_Netlist_Enabled"
F 5 "V" H 8600 2200 50  0001 L CNN "Spice_Primitive"
	1    8600 2200
	1    0    0    -1  
$EndComp
$Comp
L Simulation_SPICE:DIODE D?
U 1 1 5F2DC9CA
P 8600 2600
F 0 "D?" V 8646 2520 50  0000 R CNN
F 1 "DIODE" V 8555 2520 50  0000 R CNN
F 2 "" H 8600 2600 50  0001 C CNN
F 3 "~" H 8600 2600 50  0001 C CNN
F 4 "Y" H 8600 2600 50  0001 L CNN "Spice_Netlist_Enabled"
F 5 "V" H 8600 2600 50  0001 L CNN "Spice_Primitive"
	1    8600 2600
	1    0    0    -1  
$EndComp
Wire Wire Line
	8150 2200 8450 2200
Wire Wire Line
	8150 2600 8450 2600
Wire Wire Line
	8750 2200 9100 2200
Wire Wire Line
	8750 2600 9100 2600
Wire Wire Line
	9100 2600 9100 2200
Connection ~ 9100 2200
$Comp
L Reference_Voltage:TL431DBZ U?
U 1 1 5F2ED91A
P 9600 3650
F 0 "U?" V 9646 3580 50  0000 R CNN
F 1 "TL431LIDBZ" V 9555 3580 50  0000 R CNN
F 2 "Package_TO_SOT_SMD:SOT-23" H 9600 3500 50  0001 C CIN
F 3 "http://www.ti.com/lit/ds/symlink/tl431.pdf" H 9600 3650 50  0001 C CIN
	1    9600 3650
	0    1    -1   0   
$EndComp
$Comp
L power:Earth #PWR0106
U 1 1 5F2F1DE0
P 10250 2400
F 0 "#PWR0106" H 10250 2150 50  0001 C CNN
F 1 "Earth" H 10250 2250 50  0001 C CNN
F 2 "" H 10250 2400 50  0001 C CNN
F 3 "~" H 10250 2400 50  0001 C CNN
	1    10250 2400
	1    0    0    -1  
$EndComp
$Comp
L Device:R R?
U 1 1 5F357B25
P 10050 3450
F 0 "R?" V 9843 3450 50  0000 C CNN
F 1 "R10K" V 9934 3450 50  0000 C CNN
F 2 "" V 10090 3440 50  0001 C CNN
F 3 "~" H 10050 3450 50  0001 C CNN
	1    10050 3450
	1    0    0    -1  
$EndComp
$Comp
L Device:R R?
U 1 1 5F3593DF
P 10050 3850
F 0 "R?" V 9843 3850 50  0000 C CNN
F 1 "R10K" V 9934 3850 50  0000 C CNN
F 2 "" V 10090 3840 50  0001 C CNN
F 3 "~" H 10050 3850 50  0001 C CNN
	1    10050 3850
	1    0    0    -1  
$EndComp
$Comp
L Isolator:LTV-817S U?
U 1 1 5F35FFA9
P 9300 3250
F 0 "U?" H 9300 3575 50  0000 C CNN
F 1 "LTV-817S" H 9300 3484 50  0000 C CNN
F 2 "Package_DIP:SMDIP-4_W9.53mm" H 9300 2950 50  0001 C CNN
F 3 "http://www.us.liteon.com/downloads/LTV-817-827-847.PDF" H 8950 3550 50  0001 C CNN
	1    9300 3250
	-1   0    0    -1  
$EndComp
Wire Wire Line
	10050 3600 10050 3650
Connection ~ 10050 3650
Wire Wire Line
	10050 3650 10050 3700
Wire Wire Line
	9700 3650 10050 3650
$Comp
L power:Earth #PWR0107
U 1 1 5F37A2A5
P 9000 3650
F 0 "#PWR0107" H 9000 3400 50  0001 C CNN
F 1 "Earth" H 9000 3500 50  0001 C CNN
F 2 "" H 9000 3650 50  0001 C CNN
F 3 "~" H 9000 3650 50  0001 C CNN
	1    9000 3650
	1    0    0    -1  
$EndComp
Wire Wire Line
	9000 3350 9000 3650
Wire Wire Line
	7950 2400 10250 2400
Wire Wire Line
	9600 3350 9600 3550
Wire Wire Line
	10050 3300 10050 2200
Connection ~ 10050 2200
Wire Wire Line
	10050 2200 10250 2200
$Comp
L Device:R R?
U 1 1 5F3900BB
P 9600 2800
F 0 "R?" V 9393 2800 50  0000 C CNN
F 1 "R5.6M" V 9484 2800 50  0000 C CNN
F 2 "" V 9640 2790 50  0001 C CNN
F 3 "~" H 9600 2800 50  0001 C CNN
	1    9600 2800
	1    0    0    -1  
$EndComp
Wire Wire Line
	9600 3150 9600 2950
Wire Wire Line
	9600 2650 9600 2200
Wire Wire Line
	9100 2200 9600 2200
Connection ~ 9600 2200
Wire Wire Line
	9600 2200 10050 2200
Wire Wire Line
	9600 3750 9600 4000
Wire Wire Line
	9600 4000 10050 4000
$Comp
L power:Earth #PWR0108
U 1 1 5F397E10
P 10050 4000
F 0 "#PWR0108" H 10050 3750 50  0001 C CNN
F 1 "Earth" H 10050 3850 50  0001 C CNN
F 2 "" H 10050 4000 50  0001 C CNN
F 3 "~" H 10050 4000 50  0001 C CNN
	1    10050 4000
	1    0    0    -1  
$EndComp
$Comp
L Device:Q_NMOS_SGD Q?
U 1 1 5F2C7E2E
P 5400 3500
F 0 "Q?" H 5606 3546 50  0000 L CNN
F 1 "STD10NM60N " H 5606 3455 50  0000 L CNN
F 2 "" H 5600 3600 50  0001 C CNN
F 3 "~" H 5400 3500 50  0001 C CNN
	1    5400 3500
	1    0    0    -1  
$EndComp
Connection ~ 10050 4000
Wire Wire Line
	2900 2650 3050 2650
$Comp
L Device:R_Small R?
U 1 1 5F41B5E6
P 5100 3750
F 0 "R?" H 5159 3796 50  0000 L CNN
F 1 "R5.6K" H 5159 3705 50  0000 L CNN
F 2 "" H 5100 3750 50  0001 C CNN
F 3 "~" H 5100 3750 50  0001 C CNN
	1    5100 3750
	1    0    0    -1  
$EndComp
$Comp
L Device:R_Small R?
U 1 1 5F424EE8
P 4900 3500
F 0 "R?" V 4704 3500 50  0000 C CNN
F 1 "R1.0" V 4795 3500 50  0000 C CNN
F 2 "" H 4900 3500 50  0001 C CNN
F 3 "~" H 4900 3500 50  0001 C CNN
	1    4900 3500
	0    1    1    0   
$EndComp
Wire Wire Line
	2300 5500 2300 6200
$Comp
L Device:R_Small R0402
U 1 1 5F42F386
P 1500 6550
F 0 "R0402" V 1304 6550 50  0000 C CNN
F 1 "R1.0M" V 1395 6550 50  0000 C CNN
F 2 "Resistors_SMD:R_0402_NoSilk" H 1500 6550 50  0001 C CNN
F 3 "~" H 1500 6550 50  0001 C CNN
	1    1500 6550
	0    1    1    0   
$EndComp
Connection ~ 1800 6550
Wire Wire Line
	2200 6550 2300 6550
Connection ~ 2300 6550
Wire Wire Line
	2300 6550 2300 7150
Wire Wire Line
	2200 6200 2300 6200
Connection ~ 2300 6200
Wire Wire Line
	2300 6200 2300 6550
Wire Wire Line
	5000 3500 5100 3500
Wire Wire Line
	5100 3650 5100 3500
Connection ~ 5100 3500
Wire Wire Line
	5100 3500 5200 3500
Wire Wire Line
	5500 3700 5500 3850
Wire Wire Line
	5500 3850 5100 3850
$Comp
L power:Earth #PWR0109
U 1 1 5F462057
P 5500 3850
F 0 "#PWR0109" H 5500 3600 50  0001 C CNN
F 1 "Earth" H 5500 3700 50  0001 C CNN
F 2 "" H 5500 3850 50  0001 C CNN
F 3 "~" H 5500 3850 50  0001 C CNN
	1    5500 3850
	1    0    0    -1  
$EndComp
Connection ~ 5500 3850
$Comp
L Device:Q_NMOS_SGD Q?
U 1 1 5F471100
P 5400 2200
F 0 "Q?" H 5606 2246 50  0000 L CNN
F 1 "STD10NM60N " H 5606 2155 50  0000 L CNN
F 2 "" H 5600 2300 50  0001 C CNN
F 3 "~" H 5400 2200 50  0001 C CNN
	1    5400 2200
	1    0    0    -1  
$EndComp
$Comp
L Device:R_Small R?
U 1 1 5F471106
P 5100 2450
F 0 "R?" H 5159 2496 50  0000 L CNN
F 1 "R5.6K" H 5159 2405 50  0000 L CNN
F 2 "" H 5100 2450 50  0001 C CNN
F 3 "~" H 5100 2450 50  0001 C CNN
	1    5100 2450
	1    0    0    -1  
$EndComp
$Comp
L Device:R_Small R?
U 1 1 5F47110C
P 4900 2200
F 0 "R?" V 4704 2200 50  0000 C CNN
F 1 "R1.0" V 4795 2200 50  0000 C CNN
F 2 "" H 4900 2200 50  0001 C CNN
F 3 "~" H 4900 2200 50  0001 C CNN
	1    4900 2200
	0    1    1    0   
$EndComp
Wire Wire Line
	5000 2200 5100 2200
Wire Wire Line
	5100 2350 5100 2200
Connection ~ 5100 2200
Wire Wire Line
	5100 2200 5200 2200
Wire Wire Line
	3750 2850 4300 2850
Wire Wire Line
	4300 2850 4300 3500
Wire Wire Line
	4300 3500 4800 3500
Wire Wire Line
	3750 2250 4500 2250
Wire Wire Line
	4500 2250 4500 2900
Wire Wire Line
	4500 2900 5100 2900
Connection ~ 5500 2900
Wire Wire Line
	5500 2900 5500 3300
Text GLabel 2900 2650 0    50   Input ~ 0
FB_1
Text GLabel 9000 3150 0    50   Input ~ 0
FB_2
Wire Wire Line
	5500 2000 5500 1900
Wire Wire Line
	5500 1900 1800 1900
Wire Wire Line
	1800 1900 1800 2000
Connection ~ 1800 2000
Wire Wire Line
	1800 2000 2000 2000
Wire Wire Line
	5500 2400 5500 2900
Wire Wire Line
	5100 2550 5100 2900
Connection ~ 5100 2900
Wire Wire Line
	5100 2900 5500 2900
Wire Wire Line
	5500 2900 6000 2900
$Comp
L Device:R_Small R?
U 1 1 5F5EA787
P 1500 6200
F 0 "R?" V 1304 6200 50  0000 C CNN
F 1 "R1.0M" V 1395 6200 50  0000 C CNN
F 2 "Resistors_SMD:R_0402_NoSilk" H 1500 6200 50  0001 C CNN
F 3 "~" H 1500 6200 50  0001 C CNN
	1    1500 6200
	0    1    1    0   
$EndComp
$Comp
L Device:R_Small R?
U 1 1 5F5ED80F
P 2100 6200
F 0 "R?" V 1904 6200 50  0000 C CNN
F 1 "R1.0M" V 1995 6200 50  0000 C CNN
F 2 "Resistors_SMD:R_0402_NoSilk" H 2100 6200 50  0001 C CNN
F 3 "~" H 2100 6200 50  0001 C CNN
	1    2100 6200
	0    1    1    0   
$EndComp
$Comp
L Device:R_Small R?
U 1 1 5F5F07FF
P 2100 6550
F 0 "R?" V 1904 6550 50  0000 C CNN
F 1 "R1.0M" V 1995 6550 50  0000 C CNN
F 2 "Resistors_SMD:R_0402_NoSilk" H 2100 6550 50  0001 C CNN
F 3 "~" H 2100 6550 50  0001 C CNN
	1    2100 6550
	0    1    1    0   
$EndComp
$Comp
L Device:C_Small C?
U 1 1 5F5F6C46
P 2300 7300
F 0 "C?" H 2392 7346 50  0000 L CNN
F 1 "1000pF" H 2392 7255 50  0000 L CNN
F 2 "Capacitors_SMD:C_1206" H 2300 7300 50  0001 C CNN
F 3 "~" H 2300 7300 50  0001 C CNN
	1    2300 7300
	1    0    0    -1  
$EndComp
Connection ~ 2300 7150
Wire Wire Line
	2300 7150 2300 7250
$EndSCHEMATC
